{
"success": true,
"data": {
"id": "25ec6fceed1e28819f7f4eb12bc3088a60e3f1c0",
"type": "iPhone6,1",
"udid": "25ec6fceed1e28819f7f4eb12bc3088a60e3f1c0",
"imei": "474AB1F8150",
"detail": {
"id": "25ec6fceed1e28819f7f4eb12bc3088a60e3f1c0",
"type": "iPhone6,1",
"udid": "25ec6fceed1e28819f7f4eb12bc3088a60e3f1c0",
"imei": "474AB1F8150",
"maxHeight": 1136,
"maxWidth": 640,
"name": "Name",
"email": "mail@mail.com",
"phone": "333",
"notification": {
"push": "yes",
"email": "no",
"text": "no"
}
}
},
"error": null
}
